{
  "programs": [
    { 
      "program": {
        "programName": "Anxiety",
        "programDesc": "<p class=\"global__paragraph\">Anxiety is your body’s response to danger. The danger can be real. You might only think it is real. Usually anxiety doesn’t come from a real danger. Instead, it comes from worrying about what might happen.</p><p class=\"global__paragraph\">Anxiety is the body’s alarm system. Anxiety protects us when we are in danger. When we are in danger we become more aware. We are very cautious of the possible danger. You might have heard of “fight or flight”. Our body gets ready to either fight or run away. This is a good thing if we are actually in danger. However, if we’re not really in danger, it’s not so good. Our body might not relax. Instead, it keeps being alert. It is ready to run or fight. We’re anxious. This is a problem. But we can learn how to deal with anxiety.</p><strong>You will learn several things in this online program:</strong><ul class=\"global__bullet-list programs__bullet-list\"><li class=\"bullet-list__list-item\">What anxiety is?</li><li class=\"bullet-list__list-item\">How anxiety affects your emotions. Your mind, your body and your behaviour.</li><li class=\"bullet-list__list-item\">How to reduce anxiety by learning CBT skills.</li><li class=\"bullet-list__list-item\">Use CBT skills to change your responses to anxiety triggers.</li><li class=\"bullet-list__list-item\">Develop strategies to track and reduce your anxiety response.</li></ul>",
        "programPrice": "$500",
        "programImgPath": "/assets/images/programs/anxiety-sb.svg",
        "programImgAlt": "Woman sitting on rock" 
      }
    },
    {
      "program": {
        "programName": "Depression",
        "programDesc": "<p class=\"global__paragraph\">Anxiety is your body’s response to danger. The danger can be real. You might only think it is real. Usually anxiety doesn’t come from a real danger. Instead, it comes from worrying about what might happen.</p><p class=\"global__paragraph\">Anxiety is the body’s alarm system. Anxiety protects us when we are in danger. When we are in danger we become more aware. We are very cautious of the possible danger. You might have heard of “fight or flight”. Our body gets ready to either fight or run away. This is a good thing if we are actually in danger. However, if we’re not really in danger, it’s not so good. Our body might not relax. Instead, it keeps being alert. It is ready to run or fight. We’re anxious. This is a problem. But we can learn how to deal with anxiety.</p><strong>You will learn several things in this online program:</strong><ul class=\"global__bullet-list programs__bullet-list\"><li class=\"bullet-list__list-item\">What anxiety is?</li><li class=\"bullet-list__list-item\">How anxiety affects your emotions. Your mind, your body and your behaviour.</li><li class=\"bullet-list__list-item\">How to reduce anxiety by learning CBT skills.</li><li class=\"bullet-list__list-item\">Use CBT skills to change your responses to anxiety triggers.</li><li class=\"bullet-list__list-item\">Develop strategies to track and reduce your anxiety response.</li></ul>",
        "programPrice": "$500",
        "programImgPath": "/assets/images/programs/anxiety-sb.svg",
        "programImgAlt": "Woman sitting on rock"
      }
    }
  ]
}
